<svg id="_3_George_W_Bush_left" data-name="3_George_W_Bush_left" xmlns="http://www.w3.org/2000/svg" viewBox="0 0 31.3 314.45">
  <title>Artboard 2111</title>
  <g style="isolation: isolate">
    <g style="isolation: isolate">
      <path d="M6.42,6.8v4.63h.9v.73h-.9v1.65H5.63V12.16H2.34v-.69q.46-.53.93-1.11c.31-.39.61-.79.9-1.19S4.71,8.36,5,8A11.93,11.93,0,0,0,5.57,6.8ZM3.24,11.43H5.63V8q-.36.64-.69,1.14c-.22.34-.43.64-.62.92s-.39.52-.57.74Z" style="fill: #002954"/>
      <path d="M12.4,11.67a2.25,2.25,0,0,1-.18.92,2,2,0,0,1-.5.72,2.33,2.33,0,0,1-.78.46,3.32,3.32,0,0,1-1,.16,2.78,2.78,0,0,1-1.45-.3v-.85a2.67,2.67,0,0,0,1.46.46,1.85,1.85,0,0,0,.69-.11,1.5,1.5,0,0,0,.52-.31,1.47,1.47,0,0,0,.33-.48,1.59,1.59,0,0,0,.11-.62,1.35,1.35,0,0,0-.45-1.08,2.08,2.08,0,0,0-1.34-.38H9.17l-.3,0-.27,0L8.84,6.8h3.23v.73H9.53L9.39,9.58l.33,0H10a3.4,3.4,0,0,1,1,.14,2.14,2.14,0,0,1,.74.42,1.7,1.7,0,0,1,.47.67A2.42,2.42,0,0,1,12.4,11.67Z" style="fill: #002954"/>
      <path d="M18,10.27a7.24,7.24,0,0,1-.15,1.56A3.79,3.79,0,0,1,17.42,13a2.18,2.18,0,0,1-.74.71,2,2,0,0,1-1,.24,1.9,1.9,0,0,1-.94-.23,2.06,2.06,0,0,1-.7-.68,3.5,3.5,0,0,1-.43-1.09,6.61,6.61,0,0,1-.15-1.48,7.82,7.82,0,0,1,.16-1.63,3.57,3.57,0,0,1,.45-1.17,2,2,0,0,1,.74-.72,2.07,2.07,0,0,1,1-.24C17.3,6.69,18,7.88,18,10.27Zm-.82.08c0-2-.47-3-1.42-3s-1.5,1-1.5,3.05.49,2.83,1.47,2.83S17.21,12.28,17.21,10.35Z" style="fill: #002954"/>
      <path d="M20.42,10.31a1.48,1.48,0,0,1-1.15-.47,1.81,1.81,0,0,1-.43-1.27,2,2,0,0,1,.45-1.37,1.55,1.55,0,0,1,1.23-.5,1.49,1.49,0,0,1,1.16.46,1.91,1.91,0,0,1,.41,1.3,2,2,0,0,1-.46,1.35A1.55,1.55,0,0,1,20.42,10.31Zm.07-3.08a.9.9,0,0,0-.74.35,1.48,1.48,0,0,0-.26.94,1.4,1.4,0,0,0,.26.92.86.86,0,0,0,.72.33.83.83,0,0,0,.71-.34,1.49,1.49,0,0,0,.26-.95,1.48,1.48,0,0,0-.25-.92A.84.84,0,0,0,20.49,7.23Zm4.62-.43-4.5,7.05h-.7l4.49-7Zm-.52,7.11a1.46,1.46,0,0,1-1.15-.48A1.81,1.81,0,0,1,23,12.16a2,2,0,0,1,.45-1.37,1.58,1.58,0,0,1,1.23-.51,1.46,1.46,0,0,1,1.15.47,1.92,1.92,0,0,1,.42,1.32,2,2,0,0,1-.46,1.34A1.58,1.58,0,0,1,24.59,13.91Zm.07-3.07a.88.88,0,0,0-.74.34,1.49,1.49,0,0,0-.26,1,1.41,1.41,0,0,0,.26.91.86.86,0,0,0,.72.33.84.84,0,0,0,.71-.35,1.48,1.48,0,0,0,.26-.94,1.44,1.44,0,0,0-.25-.92A.84.84,0,0,0,24.66,10.84Z" style="fill: #002954"/>
    </g>
  </g>
  <g style="isolation: isolate">
    <g style="isolation: isolate">
      <path d="M6.93,98.82a2,2,0,0,1-.18.86,2.07,2.07,0,0,1-.5.67,2.45,2.45,0,0,1-.78.43,3.22,3.22,0,0,1-1,.15,3,3,0,0,1-1.6-.38v-.86a2.58,2.58,0,0,0,1.62.55,2.31,2.31,0,0,0,.67-.09,1.42,1.42,0,0,0,.5-.27A1.12,1.12,0,0,0,6,99.46a1.31,1.31,0,0,0,.12-.56c0-.92-.65-1.38-2-1.38H3.57v-.67h.55c1.16,0,1.73-.43,1.73-1.29s-.44-1.2-1.32-1.2a2.28,2.28,0,0,0-1.39.5v-.77a3,3,0,0,1,1.59-.4,2.49,2.49,0,0,1,.8.12,1.72,1.72,0,0,1,.61.34,1.46,1.46,0,0,1,.39.53,1.51,1.51,0,0,1,.14.68,1.7,1.7,0,0,1-1.39,1.77v0a2.48,2.48,0,0,1,.66.18,1.7,1.7,0,0,1,.52.35,1.58,1.58,0,0,1,.34.5A1.5,1.5,0,0,1,6.93,98.82Z" style="fill: #002954"/>
      <path d="M12.64,97.27a7.24,7.24,0,0,1-.15,1.56A3.79,3.79,0,0,1,12,100a2.18,2.18,0,0,1-.74.71,2,2,0,0,1-1,.24,1.9,1.9,0,0,1-.94-.23,2.06,2.06,0,0,1-.7-.68,3.5,3.5,0,0,1-.43-1.09,6.61,6.61,0,0,1-.15-1.48,7.82,7.82,0,0,1,.16-1.63,3.57,3.57,0,0,1,.45-1.17,2,2,0,0,1,.74-.72,2.07,2.07,0,0,1,1-.24C11.91,93.69,12.64,94.88,12.64,97.27Zm-.82.08c0-2-.47-3-1.42-3s-1.5,1-1.5,3,.49,2.83,1.47,2.83S11.82,99.28,11.82,97.35Z" style="fill: #002954"/>
      <path d="M18,97.27a7.24,7.24,0,0,1-.15,1.56,3.79,3.79,0,0,1-.46,1.15,2.18,2.18,0,0,1-.74.71,2,2,0,0,1-1,.24,1.9,1.9,0,0,1-.94-.23,2.06,2.06,0,0,1-.7-.68,3.5,3.5,0,0,1-.43-1.09,6.61,6.61,0,0,1-.15-1.48,7.82,7.82,0,0,1,.16-1.63,3.57,3.57,0,0,1,.45-1.17,2,2,0,0,1,.74-.72,2.07,2.07,0,0,1,1-.24C17.3,93.69,18,94.88,18,97.27Zm-.82.08c0-2-.47-3-1.42-3s-1.5,1-1.5,3,.49,2.83,1.47,2.83S17.21,99.28,17.21,97.35Z" style="fill: #002954"/>
      <path d="M20.42,97.31a1.48,1.48,0,0,1-1.15-.47,1.81,1.81,0,0,1-.43-1.27,2,2,0,0,1,.45-1.37,1.55,1.55,0,0,1,1.23-.5,1.49,1.49,0,0,1,1.16.46,1.91,1.91,0,0,1,.41,1.3,2,2,0,0,1-.46,1.35A1.55,1.55,0,0,1,20.42,97.31Zm.07-3.08a.9.9,0,0,0-.74.35,1.48,1.48,0,0,0-.26.94,1.4,1.4,0,0,0,.26.92.86.86,0,0,0,.72.33.83.83,0,0,0,.71-.34,1.84,1.84,0,0,0,0-1.87A.84.84,0,0,0,20.49,94.23Zm4.62-.43-4.5,7h-.7l4.49-7Zm-.52,7.11a1.46,1.46,0,0,1-1.15-.48A1.81,1.81,0,0,1,23,99.16a2,2,0,0,1,.45-1.37,1.58,1.58,0,0,1,1.23-.51,1.46,1.46,0,0,1,1.15.47,1.92,1.92,0,0,1,.42,1.32,2,2,0,0,1-.46,1.34A1.58,1.58,0,0,1,24.59,100.91Zm.07-3.07a.88.88,0,0,0-.74.34,1.49,1.49,0,0,0-.26.95,1.41,1.41,0,0,0,.26.91.86.86,0,0,0,.72.33.84.84,0,0,0,.71-.35,1.48,1.48,0,0,0,.26-.94,1.44,1.44,0,0,0-.25-.92A.84.84,0,0,0,24.66,97.84Z" style="fill: #002954"/>
    </g>
  </g>
  <g style="isolation: isolate">
    <g style="isolation: isolate">
      <path d="M19.25,271.28a7.21,7.21,0,0,1-.15,1.55,3.68,3.68,0,0,1-.46,1.15,2.18,2.18,0,0,1-.74.71,2,2,0,0,1-1,.24,1.9,1.9,0,0,1-.94-.23,2.06,2.06,0,0,1-.7-.68,3.5,3.5,0,0,1-.43-1.09,6.61,6.61,0,0,1-.15-1.48,7.2,7.2,0,0,1,.16-1.63,3.72,3.72,0,0,1,.45-1.18,2,2,0,0,1,.74-.71,2.07,2.07,0,0,1,1-.24C18.52,267.69,19.25,268.88,19.25,271.28Zm-.82.07c0-2-.47-3-1.42-3s-1.5,1-1.5,3,.49,2.83,1.47,2.83S18.43,273.28,18.43,271.35Z" style="fill: #002954"/>
      <path d="M21.64,271.31a1.51,1.51,0,0,1-1.16-.47,1.86,1.86,0,0,1-.43-1.27,2,2,0,0,1,.46-1.37,1.54,1.54,0,0,1,1.22-.5,1.46,1.46,0,0,1,1.16.46,1.86,1.86,0,0,1,.42,1.3,2,2,0,0,1-.46,1.35A1.6,1.6,0,0,1,21.64,271.31Zm.06-3.08a.89.89,0,0,0-.73.35,1.48,1.48,0,0,0-.27.94,1.4,1.4,0,0,0,.27.92.86.86,0,0,0,.72.33.83.83,0,0,0,.71-.34,1.84,1.84,0,0,0,0-1.87A.86.86,0,0,0,21.7,268.23Zm4.62-.43-4.49,7.05h-.7l4.49-7.05Zm-.51,7.11a1.48,1.48,0,0,1-1.16-.48,1.84,1.84,0,0,1-.43-1.27,2,2,0,0,1,.46-1.37,1.57,1.57,0,0,1,1.22-.5,1.47,1.47,0,0,1,1.16.46,2.21,2.21,0,0,1,0,2.66A1.56,1.56,0,0,1,25.81,274.91Zm.06-3.07a.87.87,0,0,0-.73.34,1.49,1.49,0,0,0-.27.95,1.41,1.41,0,0,0,.27.91.86.86,0,0,0,.72.33.84.84,0,0,0,.71-.35,1.48,1.48,0,0,0,.26-.94,1.44,1.44,0,0,0-.25-.92A.86.86,0,0,0,25.87,271.84Z" style="fill: #002954"/>
    </g>
  </g>
  <g style="isolation: isolate">
    <g style="isolation: isolate">
      <path d="M7.81,187.8H7v-6a1.83,1.83,0,0,1-.27.21l-.4.24c-.15.07-.31.15-.47.21a4,4,0,0,1-.48.17v-.81c.17-.05.36-.12.56-.2l.58-.28c.19-.1.37-.21.54-.32l.44-.33h.3Z" style="fill: #002954"/>
      <path d="M14.4,185.67a2.25,2.25,0,0,1-.18.92,2,2,0,0,1-.5.72,2.33,2.33,0,0,1-.78.46,3.32,3.32,0,0,1-1,.16,2.78,2.78,0,0,1-1.45-.3v-.84a2.74,2.74,0,0,0,1.46.45,1.85,1.85,0,0,0,.69-.11,1.5,1.5,0,0,0,.52-.31,1.47,1.47,0,0,0,.33-.48,1.61,1.61,0,0,0,.11-.63,1.35,1.35,0,0,0-.45-1.07,2,2,0,0,0-1.34-.38h-.61l-.3,0-.27,0,.24-3.51h3.23v.73H11.53l-.14,2.05.33,0H12a3.4,3.4,0,0,1,1,.14,2.14,2.14,0,0,1,.74.42,1.7,1.7,0,0,1,.47.67A2.42,2.42,0,0,1,14.4,185.67Z" style="fill: #002954"/>
      <path d="M20,184.28a7.21,7.21,0,0,1-.15,1.55,3.68,3.68,0,0,1-.46,1.15,2.18,2.18,0,0,1-.74.71,2,2,0,0,1-1,.24,1.9,1.9,0,0,1-.94-.23,2.06,2.06,0,0,1-.7-.68,3.5,3.5,0,0,1-.43-1.09,6.61,6.61,0,0,1-.15-1.48,7.82,7.82,0,0,1,.16-1.63,3.72,3.72,0,0,1,.45-1.18,2,2,0,0,1,1.75-.95C19.3,180.69,20,181.88,20,184.28Zm-.82.07c0-2-.47-3-1.42-3s-1.5,1-1.5,3,.49,2.83,1.47,2.83S19.21,186.28,19.21,184.35Z" style="fill: #002954"/>
      <path d="M22.42,184.31a1.48,1.48,0,0,1-1.15-.47,1.81,1.81,0,0,1-.43-1.27,2,2,0,0,1,.45-1.37,1.55,1.55,0,0,1,1.23-.5,1.49,1.49,0,0,1,1.16.46,1.91,1.91,0,0,1,.41,1.3,2,2,0,0,1-.46,1.35A1.58,1.58,0,0,1,22.42,184.31Zm.07-3.08a.9.9,0,0,0-.74.35,1.48,1.48,0,0,0-.26.94,1.4,1.4,0,0,0,.26.92.86.86,0,0,0,.72.33.83.83,0,0,0,.71-.34,1.84,1.84,0,0,0,0-1.87A.84.84,0,0,0,22.49,181.23Zm4.62-.43-4.5,7h-.7l4.49-7Zm-.52,7.11a1.46,1.46,0,0,1-1.15-.48,1.79,1.79,0,0,1-.43-1.27,2,2,0,0,1,.45-1.37,1.58,1.58,0,0,1,1.23-.5,1.45,1.45,0,0,1,1.15.46,1.92,1.92,0,0,1,.42,1.32,2,2,0,0,1-.46,1.34A1.58,1.58,0,0,1,26.59,187.91Zm.07-3.07a.88.88,0,0,0-.74.34,1.49,1.49,0,0,0-.26.95,1.41,1.41,0,0,0,.26.91.86.86,0,0,0,.72.33.84.84,0,0,0,.71-.35,1.48,1.48,0,0,0,.26-.94,1.44,1.44,0,0,0-.25-.92A.84.84,0,0,0,26.66,184.84Z" style="fill: #002954"/>
    </g>
  </g>
</svg>
